Division,WeightClassKg,Place,Name,Team,BodyweightKg,Best3SquatKg,Best3BenchKg,Best3DeadliftKg,TotalKg,Equipment,Event,Sex,BirthDate
Boys,51.71,1,Isaac Jones,Belton,50.48,124.74,74.84,131.54,331.12,Single-ply,SBD,M,
Boys,51.71,2,Nick Perez,Belton,40.14,88.45,45.36,102.06,235.87,Single-ply,SBD,M,
Boys,51.71,3,Marco Castelli,Belton,46.04,83.91,49.9,92.99,226.8,Single-ply,SBD,M,
Boys,51.71,4,Colin Gascon,Belton,43.32,83.91,47.63,90.72,222.26,Single-ply,SBD,M,
Boys,51.71,DQ,Bryan Muniz,Georgetown East View,50.85,68.04,,,,Single-ply,SBD,M,
Boys,55.79,1,Junior Cox,Belton,55.79,163.29,108.86,172.37,444.52,Single-ply,SBD,M,
Boys,55.79,2,Richard Willess,Belton,55.79,158.76,92.99,167.83,419.57,Single-ply,SBD,M,
Boys,55.79,3,Tahid Lloyd,Killeen Harker Heights,53.93,127.01,65.77,122.47,315.25,Single-ply,SBD,M,
Boys,55.79,4,Pedro Climaco,Georgetown East View,53.16,113.4,70.31,104.33,288.03,Single-ply,SBD,M,
Boys,55.79,5,Gregg Zavala,Georgetown East View,54.39,111.13,65.77,108.86,285.76,Single-ply,SBD,M,
Boys,55.79,DQ,Axel Alnajdawi,Pflugerville Weiss,54.93,97.52,,,,Single-ply,SBD,M,
Boys,59.87,1,Kyle Gascon,Belton,59.6,181.44,83.91,170.1,435.45,Single-ply,SBD,M,
Boys,59.87,2,Angel Longoria,Belton,59.51,140.61,99.79,170.1,410.5,Single-ply,SBD,M,
Boys,59.87,3,Jyaire Gobar,Hutto,58.74,104.33,74.84,158.76,337.93,Single-ply,SBD,M,
Boys,59.87,DQ,Calel Henry,Pflugerville Weiss,56.74,129.27,,,,Single-ply,SBD,M,
Boys,67.13,1,Gerald Fountain,Belton,65.23,158.76,95.25,190.51,444.52,Single-ply,SBD,M,
Boys,67.13,2,Juan Emanuel,Killeen Harker Heights,64,158.76,88.45,176.9,424.11,Single-ply,SBD,M,
Boys,67.13,3,Sean Galvan,Belton,65.09,138.35,99.79,156.49,394.63,Single-ply,SBD,M,
Boys,67.13,4,Joseph Knox,Belton,66.81,142.88,65.77,161.03,369.68,Single-ply,SBD,M,
Boys,67.13,5,Tyler Lawson,Georgetown,65,124.74,79.38,151.95,356.07,Single-ply,SBD,M,
Boys,67.13,6,Landen Marsh,Georgetown,63.37,127.01,92.99,131.54,351.53,Single-ply,SBD,M,
Boys,67.13,7,Emelio Vargas,Georgetown East View,62.32,108.86,90.72,138.35,337.93,Single-ply,SBD,M,
Boys,67.13,8,Jackson Coe,Georgetown East View,60.28,131.54,83.91,117.93,333.39,Single-ply,SBD,M,
Boys,67.13,9,Sebastian Arredondo,Jarrell,63.96,108.86,77.11,145.15,331.12,Single-ply,SBD,M,
Boys,67.13,10,Jalon Banks,Hutto,63.09,115.67,65.77,142.88,324.32,Single-ply,SBD,M,
Boys,67.13,11,Hector Gonzales,Smithville,66.04,106.59,74.84,131.54,312.98,Single-ply,SBD,M,
Boys,67.13,12,Drayden Dickmann,Georgetown,63.78,106.59,58.97,106.59,272.16,Single-ply,SBD,M,
Boys,67.13,13,Charles Griffin,Georgetown,63.82,92.99,65.77,102.06,260.82,Single-ply,SBD,M,
Boys,74.84,1,Scott Gurnett,Belton,73.71,206.38,131.54,192.78,530.7,Single-ply,SBD,M,
Boys,74.84,2,Austin Morin,Belton,74.16,192.78,113.4,167.83,474,Single-ply,SBD,M,
Boys,74.84,3,Tyree Trammell,Killeen Harker Heights,71.85,172.37,108.86,188.24,469.47,Single-ply,SBD,M,
Boys,74.84,4,Chad Adams,Giddings,71.53,185.97,104.33,176.9,467.2,Single-ply,SBD,M,
Boys,74.84,5,Riley Tabat,Belton,71.35,179.17,104.33,151.95,435.45,Single-ply,SBD,M,
Boys,74.84,6,Jeremiah Barron,Georgetown East View,68.4,154.22,113.4,158.76,426.38,Single-ply,SBD,M,
Boys,74.84,7,Apolo Ramos,Smithville,71.62,158.76,81.65,165.56,405.97,Single-ply,SBD,M,
Boys,74.84,8,Aiden Aldaco,Georgetown,73.21,142.88,104.33,142.88,390.09,Single-ply,SBD,M,
Boys,74.84,9,Nelson Rivas,Georgetown East View,71.21,113.4,74.84,138.35,326.59,Single-ply,SBD,M,
Boys,74.84,10,Baylor Alexander,Georgetown,68.63,113.4,74.84,124.74,312.98,Single-ply,SBD,M,
Boys,74.84,DQ,Kaden Lauderback,Austin Lake Travis,73.12,149.69,108.86,,,Single-ply,SBD,M,
Boys,74.84,DQ,Cursten Kennedy,Pflugerville Weiss,67.36,102.06,65.77,,,Single-ply,SBD,M,
Boys,74.84,DQ,Michael Akalusi,Pflugerville Weiss,74.25,129.27,,,,Single-ply,SBD,M,
Boys,74.84,DQ,Luke Larson,Austin Lake Travis,69.31,127.01,,,,Single-ply,SBD,M,
Boys,74.84,DQ,Samuel Guerrero,Jarrell,68.63,124.74,,,,Single-ply,SBD,M,
Boys,82.1,1,Tim Apodaca,Belton,80.92,226.8,136.08,217.72,580.6,Single-ply,SBD,M,
Boys,82.1,2,Zane Bolding,Hutto,75.43,190.51,117.93,195.04,503.49,Single-ply,SBD,M,
Boys,82.1,3,Owens Devin,Killeen Shoemaker,76.52,183.7,102.06,213.19,498.95,Single-ply,SBD,M,
Boys,82.1,4,Gabriel Ramos,Giddings,78.61,195.04,115.67,181.44,492.15,Single-ply,SBD,M,
Boys,82.1,5,Dustin Armstrong,Smithville,79.92,181.44,102.06,192.78,476.27,Single-ply,SBD,M,
Boys,82.1,6,Jacob Carruth,Jarrell,75.98,176.9,108.86,170.1,455.86,Single-ply,SBD,M,
Boys,82.1,7,Jaxon Waters,Georgetown,81.56,183.7,102.06,167.83,453.59,Single-ply,SBD,M,
Boys,82.1,8,Hector Granados,Giddings,78.02,176.9,104.33,165.56,446.79,Single-ply,SBD,M,
Boys,82.1,9,Aron Olague,Georgetown East View,81.51,156.49,95.25,192.78,444.52,Single-ply,SBD,M,
Boys,82.1,10,Ryan Saxton,Belton,78.15,165.56,97.52,156.49,419.57,Single-ply,SBD,M,
Boys,82.1,11,Eric Moore,Killeen Harker Heights,77.2,167.83,102.06,142.88,412.77,Single-ply,SBD,M,
Boys,82.1,12,Caden Wolfe,Georgetown,79.06,133.81,83.91,142.88,360.61,Single-ply,SBD,M,
Boys,82.1,13,Ryan Eady,Georgetown,80.29,136.08,83.91,124.74,344.73,Single-ply,SBD,M,
Boys,82.1,14,Cannon Sammons,Georgetown East View,78.47,106.59,77.11,117.93,301.64,Single-ply,SBD,M,
Boys,82.1,15,David Okoh,Hutto,79.47,142.88,83.91,,226.8,Single-ply,SB,M,
Boys,82.1,16,Adam OBrian,Georgetown,76.52,113.4,83.91,,197.31,Single-ply,SB,M,
Boys,82.1,DQ,Nick Hernandez,Georgetown,81.01,97.52,,,,Single-ply,SBD,M,
Boys,82.1,DQ,Reed Humann,Austin Lake Travis,78.97,124.74,,,,Single-ply,SBD,M,
Boys,89.81,1,Alan Hernandez #7,Georgetown,89.81,219.99,145.15,215.46,580.6,Single-ply,SBD,M,
Boys,89.81,2,Javier Preciado,Hutto,87,192.78,138.35,201.85,532.97,Single-ply,SBD,M,
Boys,89.81,3,Jonah Myers,Belton,89.45,217.72,122.47,192.78,532.97,Single-ply,SBD,M,
Boys,89.81,4,Thomas Thornburg,Georgetown East View,84.91,201.85,113.4,213.19,528.44,Single-ply,SBD,M,
Boys,89.81,5,Jiovonni Thierry-Sayfullah,Jarrell,89.54,154.22,102.06,204.12,460.4,Single-ply,SBD,M,
Boys,89.81,6,Joshua Palmer,Georgetown,89.22,151.95,104.33,176.9,433.18,Single-ply,SBD,M,
Boys,89.81,7,Jaydon Love,Pflugerville Hendrickson,89.72,165.56,102.06,165.56,433.18,Single-ply,SBD,M,
Boys,89.81,8,Rafael Villarreal,Pflugerville Hendrickson,83.19,142.88,92.99,147.42,383.29,Single-ply,SBD,M,
Boys,89.81,9,Ayden Valencia,Georgetown,84.32,131.54,81.65,156.49,369.68,Single-ply,SBD,M,
Boys,89.81,10,Devin Ross,Georgetown,88.41,117.93,97.52,142.88,358.34,Single-ply,SBD,M,
Boys,89.81,11,Makhi Wilder,Georgetown East View,88.77,138.35,83.91,117.93,340.19,Single-ply,SBD,M,
Boys,89.81,12,Mark Arnold,Jarrell,85.82,127.01,77.11,131.54,335.66,Single-ply,SBD,M,
Boys,89.81,13,Parker Chris,Killeen Shoemaker,89.63,115.67,72.57,120.2,308.44,Single-ply,SBD,M,
Boys,89.81,14,Davis Jones,Georgetown East View,85,83.91,49.9,111.13,244.94,Single-ply,SBD,M,
Boys,89.81,DQ,Marcus Hannania,Austin Lake Travis,82.42,161.03,,,,Single-ply,SBD,M,
Boys,89.81,DQ,Cam'ron Cavalier,Pflugerville Weiss,87.68,142.88,92.99,,,Single-ply,SBD,M,
Boys,89.81,DQ,Jackson Scruggs,Austin Lake Travis,82.87,176.9,111.13,,,Single-ply,SBD,M,
Boys,99.79,1,Samuel Segura,Giddings,98.02,294.84,176.9,263.08,734.82,Single-ply,SBD,M,
Boys,99.79,2,Adam Vineyard,Georgetown East View,99.7,247.21,138.35,233.6,619.15,Single-ply,SBD,M,
Boys,99.79,3,Coby Smith,Giddings,95.84,226.8,122.47,210.92,560.19,Single-ply,SBD,M,
Boys,99.79,4,KyJuan Otis,Killeen Harker Heights,94.8,183.7,108.86,195.04,487.61,Single-ply,SBD,M,
Boys,99.79,5,Josh Richardson,Georgetown,95.25,136.08,83.91,156.49,376.48,Single-ply,SBD,M,
Boys,99.79,6,Christopher Mccravy,Georgetown East View,93.98,142.88,68.04,142.88,353.8,Single-ply,SBD,M,
Boys,99.79,7,Byles TeShawn,Killeen Shoemaker,99.79,115.67,74.84,156.49,347,Single-ply,SBD,M,
Boys,99.79,8,Brodan Elliott,Georgetown,94.39,122.47,70.31,142.88,335.66,Single-ply,SBD,M,
Boys,99.79,DQ,Colton Washington,Georgetown,90.49,111.13,,,,Single-ply,SBD,M,
Boys,109.77,1,Jacob Sinkwich,Belton,109.32,249.48,154.22,226.8,630.49,Single-ply,SBD,M,
Boys,109.77,2,Jasper James,Belton,109.77,229.06,154.22,183.7,566.99,Single-ply,SBD,M,
Boys,109.77,3,Seth Kirklin,Georgetown East View,106.32,210.92,127.01,197.31,535.24,Single-ply,SBD,M,
Boys,109.77,4,Andrew Rodriguez,Giddings,103.42,206.38,127.01,192.78,526.17,Single-ply,SBD,M,
Boys,109.77,5,Glee Leaunte,Killeen Shoemaker,105.6,192.78,102.06,181.44,476.27,Single-ply,SBD,M,
Boys,109.77,6,Felix Torres,Hutto,105.28,179.17,113.4,158.76,451.32,Single-ply,SBD,M,
Boys,109.77,7,Ricky Segura,Pflugerville Weiss,100.2,149.69,120.2,161.03,430.91,Single-ply,SBD,M,
Boys,109.77,8,Nick Hanks,Hutto,103.06,158.76,90.72,163.29,412.77,Single-ply,SBD,M,
Boys,109.77,9,Robert Schweitzer,Georgetown,103.28,133.81,70.31,133.81,337.93,Single-ply,SBD,M,
Boys,109.77,DQ,Nester Salazar,Georgetown,105.19,142.88,,,,Single-ply,SBD,M,
Boys,109.77,DQ,Malachi Robinson,Killeen Harker Heights,102.24,213.19,108.86,,,Single-ply,SBD,M,
Boys,124.74,1,Bryan Luna,Belton,123.65,285.76,190.51,231.33,707.6,Single-ply,SBD,M,
Boys,124.74,2,Jaylin Rawls,Killeen Harker Heights,117.39,226.8,140.61,226.8,594.21,Single-ply,SBD,M,
Boys,124.74,3,Josh Jett,Georgetown,122.88,231.33,145.15,210.92,587.4,Single-ply,SBD,M,
Boys,124.74,4,Thomas Clawson,Jarrell,113.22,213.19,151.95,217.72,582.87,Single-ply,SBD,M,
Boys,124.74,5,Cole Smith #2,Georgetown East View,122.56,231.33,120.2,204.12,555.65,Single-ply,SBD,M,
Boys,124.74,6,Jacob Moore,Pflugerville Weiss,116.3,217.72,113.4,206.38,537.51,Single-ply,SBD,M,
Boys,124.74,7,Woodrow Beltran,Giddings,116.53,208.65,122.47,188.24,519.36,Single-ply,SBD,M,
Boys,124.74,8,Challen Maileoi,Belton,122.83,210.92,122.47,174.63,508.02,Single-ply,SBD,M,
Boys,124.74,9,Nic Bidstrup,Austin Lake Travis,120.34,181.44,138.35,163.29,483.08,Single-ply,SBD,M,
Boys,124.74,10,Nasir Castillo,Killeen Harker Heights,116.57,151.95,106.59,204.12,462.66,Single-ply,SBD,M,
Boys,124.74,11,Bryan McClarron,Pflugerville Weiss,110.13,158.76,92.99,185.97,437.72,Single-ply,SBD,M,
Boys,124.74,12,Eric Duron,Georgetown,115.48,158.76,108.86,142.88,410.5,Single-ply,SBD,M,
Boys,124.74,13,Niky Morua,Georgetown East View,124.69,156.49,104.33,149.69,410.5,Single-ply,SBD,M,
Boys,124.74,14,Curtis Burleson,Smithville,111.13,120.2,79.38,117.93,317.51,Single-ply,SBD,M,
Boys,124.74,DQ,Robert Gregg,Smithville,122.7,231.33,142.88,,,Single-ply,SBD,M,
Boys,124.74+,1,Chris Sifuentes,Giddings,145.24,310.71,158.76,256.28,725.75,Single-ply,SBD,M,
Boys,124.74+,2,Noe Ibarra,Georgetown,159.03,272.16,154.22,195.04,621.42,Single-ply,SBD,M,
Boys,124.74+,3,Ethan Psencik,Smithville,129.36,219.99,161.03,222.26,603.28,Single-ply,SBD,M,
Boys,124.74+,4,Jusiah Sampelton,Giddings,129.46,231.33,129.27,201.85,562.45,Single-ply,SBD,M,
Boys,124.74+,5,Seth Mcdaniel,Austin Lake Travis,131.54,179.17,120.2,170.1,469.47,Single-ply,SBD,M,
Boys,124.74+,6,Brayden Bittick,Smithville,134.72,176.9,113.4,174.63,464.93,Single-ply,SBD,M,
Boys,124.74+,7,Detrick Williams,Hutto,139.98,181.44,124.74,158.76,464.93,Single-ply,SBD,M,
Boys,124.74+,8,William Bishop,Austin Lake Travis,134.63,165.56,115.67,161.03,442.25,Single-ply,SBD,M,
Boys,124.74+,9,Julian Leal,Jarrell,139.34,142.88,117.93,158.76,419.57,Single-ply,SBD,M,
Boys,124.74+,DQ,Adkins Chris,Killeen Shoemaker,127.01,188.24,,,,Single-ply,SBD,M,
